<?xml version="1.0" encoding="UTF-8"?>
<svg xmlns="http://www.w3.org/2000/svg" xmlns:xlink="http://www.w3.org/1999/xlink" width="100" height="124" viewBox="0 0 100 124">
<defs>
<filter id="filter-remove-color-and-invert-alpha" x="0%" y="0%" width="100%" height="100%">
<feColorMatrix color-interpolation-filters="sRGB" values="0 0 0 0 1 0 0 0 0 1 0 0 0 0 1 0 0 0 -1 1"/>
</filter>
<filter id="filter-0" x="0%" y="0%" width="100%" height="100%">
<feImage xlink:href="#compositing-group-1" result="source" x="0" y="0" width="120" height="148.8"/>
<feImage xlink:href="#compositing-group-2" result="destination" x="0" y="0" width="120" height="148.8"/>
<feComposite in="source" in2="destination" operator="arithmetic" k1="0" k2="1" k3="1" k4="0" color-interpolation-filters="sRGB"/>
</filter>
<g>
<g id="glyph-0-0">
<path d="M 8 -24 L 8 -16 L 0 -16 L 0 -24 Z M 8 -32 L 8 -24 L 0 -24 L 0 -32 Z M 8 -40 L 8 -32 L 0 -32 L 0 -40 Z M 8 -48 L 8 -40 L 0 -40 L 0 -48 Z M 8 -48 "/>
</g>
<g id="glyph-0-1">
<path d="M 8 -8 L 8 0 L 0 0 L 0 -8 Z M 8 -16 L 8 -8 L 0 -8 L 0 -16 Z M 8 -24 L 8 -16 L 0 -16 L 0 -24 Z M 8 -32 L 8 -24 L 0 -24 L 0 -32 Z M 8 -40 L 8 -32 L 0 -32 L 0 -40 Z M 8 -48 L 8 -40 L 0 -40 L 0 -48 Z M 8 -56 L 8 -48 L 0 -48 L 0 -56 Z M 8 -64 L 8 -56 L 0 -56 L 0 -64 Z M 8 -64 "/>
</g>
<g id="glyph-0-2">
<path d="M 8 0 L 8 8 L 0 8 L 0 0 Z M 8 -8 L 8 0 L 0 0 L 0 -8 Z M 8 -16 L 8 -8 L 0 -8 L 0 -16 Z M 8 -24 L 8 -16 L 0 -16 L 0 -24 Z M 8 -48 L 8 -40 L 0 -40 L 0 -48 Z M 8 -56 L 8 -48 L 0 -48 L 0 -56 Z M 8 -72 L 8 -64 L 0 -64 L 0 -72 Z M 8 -72 "/>
</g>
<g id="glyph-0-3">
<path d="M 8 8 L 8 16 L 0 16 L 0 8 Z M 8 0 L 8 8 L 0 8 L 0 0 Z M 8 -8 L 8 0 L 0 0 L 0 -8 Z M 8 -16 L 8 -8 L 0 -8 L 0 -16 Z M 8 -24 L 8 -16 L 0 -16 L 0 -24 Z M 8 -32 L 8 -24 L 0 -24 L 0 -32 Z M 8 -40 L 8 -32 L 0 -32 L 0 -40 Z M 8 -48 L 8 -40 L 0 -40 L 0 -48 Z M 8 -56 L 8 -48 L 0 -48 L 0 -56 Z M 8 -80 L 8 -72 L 0 -72 L 0 -80 Z M 8 -80 "/>
</g>
<g id="glyph-0-4">
<path d="M 8 8 L 8 16 L 0 16 L 0 8 Z M 8 0 L 8 8 L 0 8 L 0 0 Z M 8 -8 L 8 0 L 0 0 L 0 -8 Z M 8 -16 L 8 -8 L 0 -8 L 0 -16 Z M 8 -24 L 8 -16 L 0 -16 L 0 -24 Z M 8 -32 L 8 -24 L 0 -24 L 0 -32 Z M 8 -40 L 8 -32 L 0 -32 L 0 -40 Z M 8 -80 L 8 -72 L 0 -72 L 0 -80 Z M 8 -80 "/>
</g>
<g id="glyph-0-5">
<path d="M 8 8 L 8 16 L 0 16 L 0 8 Z M 8 0 L 8 8 L 0 8 L 0 0 Z M 8 -8 L 8 0 L 0 0 L 0 -8 Z M 8 -16 L 8 -8 L 0 -8 L 0 -16 Z M 8 -80 L 8 -72 L 0 -72 L 0 -80 Z M 8 -80 "/>
</g>
<g id="glyph-0-6">
<path d="M 8 8 L 8 16 L 0 16 L 0 8 Z M 8 0 L 8 8 L 0 8 L 0 0 Z M 8 -8 L 8 0 L 0 0 L 0 -8 Z M 8 -80 L 8 -72 L 0 -72 L 0 -80 Z M 8 -80 "/>
</g>
<g id="glyph-0-7">
<path d="M 8 0 L 8 8 L 0 8 L 0 0 Z M 8 -8 L 8 0 L 0 0 L 0 -8 Z M 8 -32 L 8 -24 L 0 -24 L 0 -32 Z M 8 -40 L 8 -32 L 0 -32 L 0 -40 Z M 8 -72 L 8 -64 L 0 -64 L 0 -72 Z M 8 -72 "/>
</g>
<g id="glyph-0-8">
<path d="M 8 0 L 8 8 L 0 8 L 0 0 Z M 8 -8 L 8 0 L 0 0 L 0 -8 Z M 8 -32 L 8 -24 L 0 -24 L 0 -32 Z M 8 -40 L 8 -32 L 0 -32 L 0 -40 Z M 8 -64 L 8 -56 L 0 -56 L 0 -64 Z M 8 -72 L 8 -64 L 0 -64 L 0 -72 Z M 8 -72 "/>
</g>
<g id="glyph-0-9">
<path d="M 8 -8 L 8 0 L 0 0 L 0 -8 Z M 8 -16 L 8 -8 L 0 -8 L 0 -16 Z M 8 -56 L 8 -48 L 0 -48 L 0 -56 Z M 8 -64 L 8 -56 L 0 -56 L 0 -64 Z M 8 -64 "/>
</g>
</g>
<g id="compositing-group-0" transform="translate(10, 12.4)">
<rect x="-10" y="-12.4" width="120" height="148.8" fill="rgb(0%, 0%, 0%)" fill-opacity="0"/>
<rect x="-10" y="-12.4" width="120" height="148.8" fill="rgb(100%, 100%, 100%)" fill-opacity="1"/>
</g>
<mask id="mask-0">
<use xlink:href="#compositing-group-0"/>
</mask>
<mask id="mask-1">
<use xlink:href="#compositing-group-0" filter="url(#filter-remove-color-and-invert-alpha)"/>
</mask>
<g id="compositing-group-1" mask="url(#mask-0)">
<g transform="translate(10, 12.4)">
<rect x="-10" y="-12.4" width="120" height="148.8" fill="rgb(100%, 100%, 100%)" fill-opacity="1"/>
</g>
</g>
<g id="compositing-group-2" mask="url(#mask-1)">
<g transform="translate(10, 12.4)">
</g>
</g>
</defs>
<g filter="url(#filter-0)" transform="translate(-10, -12.4)">
<rect x="0" y="0" width="120" height="148.8" fill="rgb(0%, 0%, 0%)" fill-opacity="1"/>
</g>
<g fill="rgb(0%, 0%, 0%)" fill-opacity="1">
<use xlink:href="#glyph-0-0" x="2" y="90"/>
<use xlink:href="#glyph-0-1" x="10" y="90"/>
<use xlink:href="#glyph-0-2" x="18" y="90"/>
<use xlink:href="#glyph-0-2" x="26" y="90"/>
<use xlink:href="#glyph-0-3" x="34" y="90"/>
<use xlink:href="#glyph-0-4" x="42" y="90"/>
<use xlink:href="#glyph-0-5" x="50" y="90"/>
<use xlink:href="#glyph-0-6" x="58" y="90"/>
<use xlink:href="#glyph-0-7" x="66" y="90"/>
<use xlink:href="#glyph-0-8" x="74" y="90"/>
<use xlink:href="#glyph-0-9" x="82" y="90"/>
<use xlink:href="#glyph-0-0" x="90" y="90"/>
</g>
</svg>
